Applied PSet 2,
…
## Observations: 385
## Variables: 7
## $ Reporting.District     <fct> 18, 19, 20, 21, 22, 23, 24, 25, 26, 27, 28, ...
## $ Department.Name        <fct> CPD, CPD, CPD, CPD, CPD, CPD, CPD, CPD, CPD-...
## $ Department.Description <fct> 1160 N. Larrabee, 2452 W. Belmont, 5400 N. L...
## $ Department.Category    <fct> CPD, CPD, CPD, CPD, CPD, CPD, CPD, CPD, CPD,...
## $ X                      <lgl> NA, NA, NA, NA, NA, NA, NA, NA, NA, NA, NA, ...
## $ Reporting.District.1   <fct> 18, 19, 20, 21, 22, 23, 24, 25, 26, 27, 28, ...
## $ Department.Category.1  <fct> CPD, CPD, CPD, CPD, CPD, CPD, CPD, CPD, CPD,...

unit_key %>% 
  group_by(Reporting.District.1) %>%
  count()

## # A tibble: 385 x 2
## # Groups:   Reporting.District.1 [385]
##    Reporting.District.1     n
##    <fct>                <int>
##  1 ""                       1
##  2 0                        1
##  3 0TEM                     1
##  4 1                        1
##  5 10                       1
##  6 100                      1
##  7 101                      1
##  8 1024                     1
##  9 1032                     1
## 10 109                      1
## # ... with 375 more rows

to_drop <- c("0TEM", 0, "CTA", "D2", "K52", "cta", 9999, "pl", "RDFX", "SPD", "TEST", "XERX", "")

unit_key <- unit_key %>% 
  filter(!Reporting.District.1 %in% to_drop) 

unit_key %>% 
  group_by(Reporting.District.1) %>% count() 

## # A tibble: 372 x 2
## # Groups:   Reporting.District.1 [372]
##    Reporting.District.1     n
##    <fct>                <int>
##  1 1                        1
##  2 10                       1
##  3 100                      1
##  4 101                      1
##  5 1024                     1
##  6 1032                     1
##  7 109                      1
##  8 11                       1
##  9 110                      1
## 10 111                      1
## # ... with 362 more rows
…
Join unit key to the tickets data. How many rows in the tickets data have a match in the unit table? How many rows are unmatched? How many rows in the unit table have a match in the tickets data? How many do not?

unit_key$Reporting.District <- as.numeric(as.character(unit_key$Reporting.District.1))

ticket$unit <- as.factor((ticket$unit))

left_join(ticket, unit_key, by = c( "unit" = "Reporting.District.1"))%>% 
  group_by(unit) %>% 
  count()

## Warning: Column `unit`/`Reporting.District.1` joining factors with different
## levels, coercing to character vector

## # A tibble: 129 x 2
## # Groups:   unit [129]
##    unit      n
##    <chr> <int>
##  1 1      3993
##  2 10     5469
##  3 11     3943
##  4 112       1
##  5 12     4478
##  6 121       1
##  7 123       2
##  8 124      43
##  9 125       5
## 10 13     1581
## # ... with 119 more rows

On running the left_join we see that there no unmatched rows i.e.287,458 observations. By grouping by rows we observe 129 keys being using used from the unit_key table where the last key is an NA with 29 observations under it

ticket_joined <- inner_join(unit_key, ticket, by = c("Reporting.District.1" = "unit")) 

## Warning: Column `Reporting.District.1`/`unit` joining factors with different
## levels, coercing to character vector

ticket_joined%>% 
  group_by(Reporting.District.1) %>% 
  count()

## # A tibble: 128 x 2
## # Groups:   Reporting.District.1 [128]
##    Reporting.District.1     n
##    <chr>                <int>
##  1 1                     3993
##  2 10                    5469
##  3 11                    3943
##  4 112                      1
##  5 12                    4478
##  6 121                      1
##  7 123                      2
##  8 124                     43
##  9 125                      5
## 10 13                    1581
## # ... with 118 more rows
…
## Warning: NAs introduced by coercion

census_ticket <- inner_join(ticket, chicago_data, by = "ZIP")  

Replicate the key nding in the Propublica by ranking ZIPs by the number of unpaid tickets per resident by ZIP. What are the names of the three neighborhoods with the most unpaid tickets?

census_ticket %>% 
  group_by(ZIP) %>% 
  filter(ticket_queue == "Notice"| ticket_queue == "Bankruptcy") %>%
  summarise(obs = n(), population = mean(population), black = mean(share_black))%>% 
  mutate(Rate = obs/population, Black = black/population*100) %>% 
  select(ZIP, Rate, Black) %>%
  arrange(desc(Rate)) 

## # A tibble: 67 x 3
##      ZIP   Rate Black
##    <dbl>  <dbl> <dbl>
##  1 60636 0.0334  89.9
##  2 60621 0.0332  94.8
##  3 60624 0.0307  90.8
##  4 60644 0.0291  89.9
##  5 60649 0.0243  92.9
##  6 60651 0.0225  52.1
##  7 60620 0.0214  96.4
##  8 60619 0.0204  96.1
##  9 60628 0.0201  93.7
## 10 60623 0.0198  31.2
## # ... with 57 more rows
…
2.2 revenue increase from missing city sticker tickets

Some of the other articles on the propublica website discuss an increase in the dollar amount of the ticket for not having a city sticker

What was the old violation code and what is the new violation code? How much was the cost of an initial offense under each code?

Old violation code is 0964125 with $120 initial offense cost, new violation code is 0964125B with $200 initial offense cost

ticket_joined %>%
  select(contains("violation"), everything()) %>%
  group_by(violation_code) %>%
  count()

## # A tibble: 116 x 2
## # Groups:   violation_code [116]
##    violation_code     n
##    <fct>          <int>
##  1 0912060         1233
##  2 0940060          236
##  3 0940080           81
##  4 0940170           64
##  5 0940220           32
##  6 0964020A        1111
##  7 0964020B        1577
##  8 0964020C          14
##  9 0964030B         110
## 10 0964040B       32082
## # ... with 106 more rows
…
