30535 Skills Problem Set 4
…
## [1] 7240

who %>%
  complete(country, year) %>%
  nrow()

## [1] 7446

7446-7240

## [1] 206

who

## # A tibble: 7,240 x 60
##    country iso2  iso3   year new_sp_m014 new_sp_m1524 new_sp_m2534
##    <chr>   <chr> <chr> <int>       <int>        <int>        <int>
##  1 Afghan AF    AFG    1980          NA           NA           NA
##  2 Afghan AF    AFG    1981          NA           NA           NA
##  3 Afghan AF    AFG    1982          NA           NA           NA
##  4 Afghan AF    AFG    1983          NA           NA           NA
##  5 Afghan AF    AFG    1984          NA           NA           NA
##  6 Afghan AF    AFG    1985          NA           NA           NA
##  7 Afghan AF    AFG    1986          NA           NA           NA
##  8 Afghan AF    AFG    1987          NA           NA           NA
##  9 Afghan AF    AFG    1988          NA           NA           NA
## 10 Afghan AF    AFG    1989          NA           NA           NA
## #  with 7,230 more rows, and 53 more variables: new_sp_m3544 <int>,
## #   new_sp_m4554 <int>, new_sp_m5564 <int>, new_sp_m65 <int>,
## #   new_sp_f014 <int>, new_sp_f1524 <int>, new_sp_f2534 <int>,
## #   new_sp_f3544 <int>, new_sp_f4554 <int>, new_sp_f5564 <int>,
## #   new_sp_f65 <int>, new_sn_m014 <int>, new_sn_m1524 <int>,
## #   new_sn_m2534 <int>, new_sn_m3544 <int>, new_sn_m4554 <int>,
## #   new_sn_m5564 <int>, new_sn_m65 <int>, new_sn_f014 <int>,
## #   new_sn_f1524 <int>, new_sn_f2534 <int>, new_sn_f3544 <int>,
## #   new_sn_f4554 <int>, new_sn_f5564 <int>, new_sn_f65 <int>,
…
In this WHO case study in Ch 12.6,

whats the difference between an NA and zero?

NA is used to indicate missing data.

Zero is used to report 0 cases and it means data exists for the case.

who %>%
  filter(new_ep_f014 == 0)

## # A tibble: 300 x 60
##    country iso2  iso3   year new_sp_m014 new_sp_m1524 new_sp_m2534
##    <chr>   <chr> <chr> <int>       <int>        <int>        <int>
##  1 Americ AS    ASM    2008           0            0            0
##  2 Americ AS    ASM    2009           0            0            0
##  3 Americ AS    ASM    2010           0            0            0
##  4 Andorra AD    AND    2006           0            1            1
##  5 Andorra AD    AND    2008           0            0            0
##  6 Andorra AD    AND    2009           0            0            0
##  7 Andorra AD    AND    2010           0            0            0
##  8 Andorra AD    AND    2011           0            0            0
##  9 Andorra AD    AND    2012           0            0            0
## 10 Anguil AI    AIA    2010           0            0            0
## #  with 290 more rows, and 53 more variables: new_sp_m3544 <int>,
## #   new_sp_m4554 <int>, new_sp_m5564 <int>, new_sp_m65 <int>,
## #   new_sp_f014 <int>, new_sp_f1524 <int>, new_sp_f2534 <int>,
## #   new_sp_f3544 <int>, new_sp_f4554 <int>, new_sp_f5564 <int>,
## #   new_sp_f65 <int>, new_sn_m014 <int>, new_sn_m1524 <int>,
## #   new_sn_m2534 <int>, new_sn_m3544 <int>, new_sn_m4554 <int>,
## #   new_sn_m5564 <int>, new_sn_m65 <int>, new_sn_f014 <int>,
## #   new_sn_f1524 <int>, new_sn_f2534 <int>, new_sn_f3544 <int>,
## #   new_sn_f4554 <int>, new_sn_f5564 <int>, new_sn_f65 <int>,
## #   new_ep_m014 <int>, new_ep_m1524 <int>, new_ep_m2534 <int>,
## #   new_ep_m3544 <int>, new_ep_m4554 <int>, new_ep_m5564 <int>,
## #   new_ep_m65 <int>, new_ep_f014 <int>, new_ep_f1524 <int>,
## #   new_ep_f2534 <int>, new_ep_f3544 <int>, new_ep_f4554 <int>,
## #   new_ep_f5564 <int>, new_ep_f65 <int>, newrel_m014 <int>,
## #   newrel_m1524 <int>, newrel_m2534 <int>, newrel_m3544 <int>,
## #   newrel_m4554 <int>, newrel_m5564 <int>, newrel_m65 <int>,
## #   newrel_f014 <int>, newrel_f1524 <int>, newrel_f2534 <int>,
## #   newrel_f3544 <int>, newrel_f4554 <int>, newrel_f5564 <int>,
## #   newrel_f65 <int>

who %>%
  filter(is.na(new_ep_f014))

## # A tibble: 6,208 x 60
##    country iso2  iso3   year new_sp_m014 new_sp_m1524 new_sp_m2534
##    <chr>   <chr> <chr> <int>       <int>        <int>        <int>
##  1 Afghan AF    AFG    1980          NA           NA           NA
##  2 Afghan AF    AFG    1981          NA           NA           NA
##  3 Afghan AF    AFG    1982          NA           NA           NA
##  4 Afghan AF    AFG    1983          NA           NA           NA
##  5 Afghan AF    AFG    1984          NA           NA           NA
##  6 Afghan AF    AFG    1985          NA           NA           NA
##  7 Afghan AF    AFG    1986          NA           NA           NA
##  8 Afghan AF    AFG    1987          NA           NA           NA
##  9 Afghan AF    AFG    1988          NA           NA           NA
## 10 Afghan AF    AFG    1989          NA           NA           NA
## #  with 6,198 more rows, and 53 more variables: new_sp_m3544 <int>,
## #   new_sp_m4554 <int>, new_sp_m5564 <int>, new_sp_m65 <int>,
## #   new_sp_f014 <int>, new_sp_f1524 <int>, new_sp_f2534 <int>,
## #   new_sp_f3544 <int>, new_sp_f4554 <int>, new_sp_f5564 <int>,
## #   new_sp_f65 <int>, new_sn_m014 <int>, new_sn_m1524 <int>,
## #   new_sn_m2534 <int>, new_sn_m3544 <int>, new_sn_m4554 <int>,
## #   new_sn_m5564 <int>, new_sn_m65 <int>, new_sn_f014 <int>,
## #   new_sn_f1524 <int>, new_sn_f2534 <int>, new_sn_f3544 <int>,
## #   new_sn_f4554 <int>, new_sn_f5564 <int>, new_sn_f65 <int>,
…
(who_by_cys <- 
  who_tidy %>%
  group_by(country, year, sex) %>%
  summarise(cases = sum(cases))%>%
  pivot_wider(names_from = "sex",
              values_from = "cases")
  )

## # A tibble: 3,484 x 4
## # Groups:   country, year [3,484]
##    country      year     f     m
##    <chr>       <int> <int> <int>
##  1 Afghanistan  1997   102    26
##  2 Afghanistan  1998  1207   571
##  3 Afghanistan  1999   517   228
##  4 Afghanistan  2000  1751   915
##  5 Afghanistan  2001  3062  1577
##  6 Afghanistan  2002  4418  2091
##  7 Afghanistan  2003  4423  2105
##  8 Afghanistan  2004  5587  2658
##  9 Afghanistan  2005  6818  3131
## 10 Afghanistan  2006  8520  3949
## #  with 3,474 more rows

Using raw values is probably not going to provide clear evidence.

Why not?

To address evidence for the gender specific difference, it will be better to work with proportion or difference between male and female cases.

For each country-year, compute the ratio of male to female patients.

who_by_cys %>%
  summarise(male_to_female_ratio = m / f)

## # A tibble: 3,484 x 3
## # Groups:   country [219]
##    country      year male_to_female_ratio
##    <chr>       <int>                <dbl>
##  1 Afghanistan  1997                0.255
##  2 Afghanistan  1998                0.473
##  3 Afghanistan  1999                0.441
##  4 Afghanistan  2000                0.523
##  5 Afghanistan  2001                0.515
##  6 Afghanistan  2002                0.473
##  7 Afghanistan  2003                0.476
##  8 Afghanistan  2004                0.476
##  9 Afghanistan  2005                0.459
## 10 Afghanistan  2006                0.463
## #  with 3,474 more rows
…
Just by looking at the ratios by year, its extremely hard to distinguish what is driving fluctuations for these ratios, just by looking at the ratios by year.

If country is important factor, it might be misleading to ignore the country specific factors at all with this annual ratios.

result:

(who_year <-
  who_tidy %>%
  group_by(year) %>%
  summarise(total_male_cases = sum(cases[sex=="m"]),
            total_female_cases = sum(cases[sex=="f"])) %>%
  mutate(yr_male_to_female_ratio = total_male_cases / total_female_cases))

## # A tibble: 34 x 4
##     year total_male_cases total_female_cases yr_male_to_female_ratio
##    <int>            <int>              <int>                   <dbl>
##  1  1980              622                337                    1.85
##  2  1981              514                291                    1.77
##  3  1982              531                293                    1.81
##  4  1983              491                295                    1.66
##  5  1984              503                311                    1.62
##  6  1985              513                286                    1.79
##  7  1986              482                272                    1.77
##  8  1987              423                247                    1.71
##  9  1988              433                249                    1.74
## 10  1989              410                244                    1.68
## #  with 24 more rows
…
1. Compute the average delay by destination, then join on the airports data frame so you can show the spatial distribution of delays.

not_cancelled <- 
  flights %>%
  filter(!is.na(dep_delay), !is.na(arr_delay)) %>%
  filter(dest != "HNL", dest != "ANC")

(mapping <-  
not_cancelled %>%
  group_by(dest) %>%
  summarise(delay = mean(arr_delay)) %>%
  inner_join(airports, by = c(dest = "faa")))

## # A tibble: 98 x 9
##    dest  delay name                 lat    lon   alt    tz dst   tzone     
##    <chr> <dbl> <chr>              <dbl>  <dbl> <dbl> <dbl> <chr> <chr>     
##  1 ABQ    4.38 Albuquerque Inter  35.0 -107.   5355    -7 A     America/D
##  2 ACK    4.85 Nantucket Mem       41.3  -70.1    48    -5 A     America/N
##  3 ALB   14.4  Albany Intl         42.7  -73.8   285    -5 A     America/N
##  4 ATL   11.3  Hartsfield Jackso  33.6  -84.4  1026    -5 A     America/N
##  5 AUS    6.02 Austin Bergstrom   30.2  -97.7   542    -6 A     America/C
##  6 AVL    8.00 Asheville Regiona  35.4  -82.5  2165    -5 A     America/N
##  7 BDL    7.05 Bradley Intl        41.9  -72.7   173    -5 A     America/N
##  8 BGR    8.03 Bangor Intl         44.8  -68.8   192    -5 A     America/N
##  9 BHM   16.9  Birmingham Intl     33.6  -86.8   644    -6 A     America/C
## 10 BNA   11.8  Nashville Intl      36.1  -86.7   599    -6 A     America/C
## #  with 88 more rows
…
Add the location of the origin and destination (i.e.the lat and lon) to the flights data frame.

flights %>%
  left_join(airports, by = c("origin" = "faa")) %>%
  left_join(airports, by = c("dest" = "faa")) %>%
  select(origin, dest, lon.x, alt.x, lon.y, alt.y)

## # A tibble: 336,776 x 6
##    origin dest  lon.x alt.x lon.y alt.y
##    <chr>  <chr> <dbl> <dbl> <dbl> <dbl>
##  1 EWR    IAH   -74.2    18 -95.3    97
##  2 LGA    IAH   -73.9    22 -95.3    97
##  3 JFK    MIA   -73.8    13 -80.3     8
##  4 JFK    BQN   -73.8    13  NA      NA
##  5 LGA    ATL   -73.9    22 -84.4  1026
##  6 EWR    ORD   -74.2    18 -87.9   668
##  7 EWR    FLL   -74.2    18 -80.2     9
##  8 LGA    IAD   -73.9    22 -77.5   313
##  9 JFK    MCO   -73.8    13 -81.3    96
## 10 LGA    ORD   -73.9    22 -87.9   668
## #  with 336,766 more rows

Is each plane is flown by a single airline?

No, there are planes flown by more than one airline.

For instance, N146PQ is flown by 2 airlines, 9E and EV.

(cf.Planes are identified by tailnum, since its an ID that follows the plane regardless of ownership.)

not_cancelled %>%
  filter(!is.na(tailnum)) %>%
  filter(tailnum == "N146PQ") %>%
  select(carrier, tailnum) 

## # A tibble: 38 x 2
##    carrier tailnum
##    <chr>   <chr>  
##  1 9E      N146PQ 
##  2 9E      N146PQ 
##  3 EV      N146PQ 
##  4 EV      N146PQ 
##  5 EV      N146PQ 
##  6 EV      N146PQ 
##  7 EV      N146PQ 
##  8 9E      N146PQ 
##  9 9E      N146PQ 
## 10 9E      N146PQ 
## #  with 28 more rows
…
Questiotion: Is there a relationship between the age of a plane and its delays?

Query

planes_rename <- 
  planes %>%
  rename(manufactured_in = year) 
planes_rename

## # A tibble: 3,322 x 9
##    tailnum manufactured_in type  manufacturer model engines seats speed
##    <chr>             <int> <chr> <chr>        <chr>   <int> <int> <int>
##  1 N10156             2004 Fixe EMBRAER      EMB-       2    55    NA
##  2 N102UW             1998 Fixe AIRBUS INDU A320       2   182    NA
##  3 N103US             1999 Fixe AIRBUS INDU A320       2   182    NA
##  4 N104UW             1999 Fixe AIRBUS INDU A320       2   182    NA
##  5 N10575             2002 Fixe EMBRAER      EMB-       2    55    NA
##  6 N105UW             1999 Fixe AIRBUS INDU A320       2   182    NA
##  7 N107US             1999 Fixe AIRBUS INDU A320       2   182    NA
##  8 N108UW             1999 Fixe AIRBUS INDU A320       2   182    NA
##  9 N109UW             1999 Fixe AIRBUS INDU A320       2   182    NA
## 10 N110UW             1999 Fixe AIRBUS INDU A320       2   182    NA
## #  with 3,312 more rows, and 1 more variable: engine <chr>
…
