30535 Skills Problem Set 6
…
STT, SLB, GSO were top 3 airports with least average delays. (Affected the least)

resource: https://en.wikipedia.org/wiki/June_1213,_2013_derecho_series

What does anti_join(flights, airports, by = c(dest = faa)) tell you?

Output for running this code returns the flights that went to an airport that is not in the faa list as a destinations.

Here, we are connecting flights and airplanes by usingdest and foreign key faa and anti_join is used to diagnose mismatches, by checking whether the foreign keys match primary keys.

So this code, let us know destination dont have a match in airports.

anti_join(flights, airports, by = c("dest" = "faa"))

## # A tibble: 7,602 x 19
##     year month   day dep_time sched_dep_time dep_delay arr_time
##    <int> <int> <int>    <int>          <int>     <dbl>    <int>
##  1  2013     1     1      544            545        -1     1004
##  2  2013     1     1      615            615         0     1039
##  3  2013     1     1      628            630        -2     1137
##  4  2013     1     1      701            700         1     1123
##  5  2013     1     1      711            715        -4     1151
##  6  2013     1     1      820            820         0     1254
##  7  2013     1     1      820            820         0     1249
##  8  2013     1     1      840            845        -5     1311
##  9  2013     1     1      909            810        59     1331
## 10  2013     1     1      913            918        -5     1346
## #  with 7,592 more rows, and 12 more variables: sched_arr_time <int>,
## #   arr_delay <dbl>, carrier <chr>, flight <int>, tailnum <chr>,
## #   origin <chr>, dest <chr>, air_time <dbl>, distance <dbl>, hour <dbl>,
## #   minute <dbl>, time_hour <dttm>

flights %>%
  count(dest) %>%
  filter(n > 1)

## # A tibble: 103 x 2
##    dest      n
##    <chr> <int>
##  1 ABQ     254
##  2 ACK     265
##  3 ALB     439
##  4 ANC       8
##  5 ATL   17215
##  6 AUS    2439
##  7 AVL     275
##  8 BDL     443
##  9 BGR     375
## 10 BHM     297
## #  with 93 more rows

airports %>%
  count(faa) %>%
  filter(n > 1)

## # A tibble: 0 x 2
## #  with 2 variables: faa <chr>, n <int>

What does anti_join(airports, flights, by = c(faa = dest)) tell you?

Output for running this code returns the US airports that were not the destinations of any flight from New York City airports in 2013.

anti_join(airports, flights, by = c("faa" = "dest"))

## # A tibble: 1,357 x 8
##    faa   name                    lat    lon   alt    tz dst   tzone        
##    <chr> <chr>                 <dbl>  <dbl> <dbl> <dbl> <chr> <chr>        
##  1 04G   Lansdowne Airport      41.1  -80.6  1044    -5 A     America/New_
##  2 06A   Moton Field Municipa  32.5  -85.7   264    -6 A     America/Chic
##  3 06C   Schaumburg Regional    42.0  -88.1   801    -6 A     America/Chic
##  4 06N   Randall Airport        41.4  -74.4   523    -5 A     America/New_
##  5 09J   Jekyll Island Airport  31.1  -81.4    11    -5 A     America/New_
##  6 0A9   Elizabethton Municip  36.4  -82.2  1593    -5 A     America/New_
##  7 0G6   Williams County Airp  41.5  -84.5   730    -5 A     America/New_
##  8 0G7   Finger Lakes Regiona  42.9  -76.8   492    -5 A     America/New_
##  9 0P2   Shoestring Aviation   39.8  -76.6  1000    -5 U     America/New_
## 10 0S9   Jefferson County Intl  48.1 -123.    108    -8 A     America/Los_
## #  with 1,347 more rows
…
(all_delayed_cases <-
  not_cancelled %>%
  mutate(
    dep_time_new = sub("(\\d+)(\\d{2})", "\\1:\\2", dep_time),
    sched_dep_time_new = sub("(\\d+)(\\d{2})", "\\1:\\2", sched_dep_time),
    subtract = strptime(dep_time_new, format = "%H:%M") - strptime(sched_dep_time_new, format = "%H:%M"),
    dep_delay_in_sec = dep_delay * 60,
    dep_delay_new = as.duration(dep_delay_in_sec),
    diff = dep_delay_new - subtract
  ) %>%
  select(dep_time_new, sched_dep_time_new, dep_delay_new, subtract, diff))

## # A tibble: 328,063 x 5
##    dep_time_new sched_dep_time_new dep_delay_new     subtract  diff      
##    <chr>        <chr>              <Duration>        <drtn>    <Duration>
##  1 5:17         5:15               120s (~2 minutes)  120 secs 0s        
##  2 5:33         5:29               240s (~4 minutes)  240 secs 0s        
##  3 5:42         5:40               120s (~2 minutes)  120 secs 0s        
##  4 5:44         5:45               60s (~1 minutes)   -60 secs 0s        
##  5 5:54         6:00               360s (~6 minutes) -360 secs 0s        
##  6 5:54         5:58               240s (~4 minutes) -240 secs 0s        
##  7 5:55         6:00               300s (~5 minutes) -300 secs 0s        
##  8 5:57         6:00               180s (~3 minutes) -180 secs 0s        
##  9 5:57         6:00               180s (~3 minutes) -180 secs 0s        
## 10 5:58         6:00               120s (~2 minutes) -120 secs 0s        
## #  with 328,053 more rows

(equation_does_hold <-
  all_delayed_cases %>%
  filter(diff == as.duration(0)))

## # A tibble: 326,858 x 5
##    dep_time_new sched_dep_time_new dep_delay_new     subtract  diff      
##    <chr>        <chr>              <Duration>        <drtn>    <Duration>
##  1 5:17         5:15               120s (~2 minutes)  120 secs 0s        
##  2 5:33         5:29               240s (~4 minutes)  240 secs 0s        
##  3 5:42         5:40               120s (~2 minutes)  120 secs 0s        
##  4 5:44         5:45               60s (~1 minutes)   -60 secs 0s        
##  5 5:54         6:00               360s (~6 minutes) -360 secs 0s        
##  6 5:54         5:58               240s (~4 minutes) -240 secs 0s        
##  7 5:55         6:00               300s (~5 minutes) -300 secs 0s        
##  8 5:57         6:00               180s (~3 minutes) -180 secs 0s        
##  9 5:57         6:00               180s (~3 minutes) -180 secs 0s        
## 10 5:58         6:00               120s (~2 minutes) -120 secs 0s        
## #  with 326,848 more rows

(equation_does_not_hold <-
  all_delayed_cases %>%
  filter(diff > as.duration(0)))

## # A tibble: 324 x 5
##    dep_time_new sched_dep_time_ dep_delay_new         subtract
##    <chr>        <chr>            <Duration>            <drtn>  
##  1 8:48         18:35            51180s (~14.22 hours) -35220 
##  2 1:26         22:50            9360s (~2.6 hours)    -77040 
##  3 2:35         23:59            9360s (~2.6 hours)    -77040 
##  4 1:06         22:45            8460s (~2.35 hours)   -77940 
##  5 6:41         9:00             78060s (~21.68 hours)  -8340 
##  6 11:21        16:35            67560s (~18.77 hours) -18840 
##  7 1:08         22:45            8580s (~2.38 hours)   -77820 
##  8 1:15         20:00            18900s (~5.25 hours)  -67500 
##  9 1:58         21:59            14340s (~3.98 hours)  -72060 
## 10 1:23         20:00            19380s (~5.38 hours)  -67020 
## #  with 314 more rows, and 1 more variable: diff <Duration>
…
